Stats Exam
…
The assumptions for this test are as follows: The distribution for the data in the population is Gaussian; there is equal variance across groups; the errors are independent; and the data are unmatched.

## 
## Attaching package: 'dplyr'

## The following objects are masked from 'package:stats':
## 
##     filter, lag

## The following objects are masked from 'package:base':
## 
##     intersect, setdiff, setequal, union

## # A tibble: 130 x 3
##      Sex body_temperature heart_rate
##    <chr>            <dbl>      <int>
## 1   male             35.7         70
## 2   male             35.9         71
## 3   male             36.1         74
## 4   male             36.1         80
## 5   male             36.2         73
## 6   male             36.2         75
## 7   male             36.2         82
## 8   male             36.2         64
## 9   male             36.3         69
## 10  male             36.3         70
## # ... with 120 more rows
…
